{
    "data": [
        {
            "id": 1,
            "type": "Card",
            "where": "Dropbox",
            "description": "Subscription renewal",
            "amount": "- $120.00",
            "date": "24.12.2020",
            "time": "11:16 AM"
        },
        {
            "id": 2,
            "type": "Card",
            "where": "Spotify",
            "description": "Subscription renewal",
            "amount": "- $9.99",
            "date": "24.12.2020",
            "time": "07:16 AM"
        },
        {
            "id": 3,
            "type": "Card",
            "where": "Apple",
            "description": "MacBook Pro 13”",
            "amount": "- $1,499.00",
            "date": "24.12.2020",
            "time": "11:16 AM"
        },
        {
            "id": 4,
            "type": "Card",
            "where": "James Smith",
            "description": "Invoice no. 37489",
            "amount": "+ $60.00",
            "date": "24.12.2020",
            "time": "07:16 AM"
        },
        {
            "id": 5,
            "type": "Card",
            "where": "Uber",
            "description": "From the airport",
            "amount": "- $20.00",
            "date": "24.12.2020",
            "time": "07:16 AM"
        },
        {
            "id": 6,
            "type": "Card",
            "where": "Marriott",
            "description": "Hotel",
            "amount": "- $410.00",
            "date": "24.12.2020",
            "time": "07:16 AM"
        },
        {
            "id": 7,
            "type": "Card",
            "where": "Jane Cooper",
            "description": "Invoice no. 37489",
            "amount": "+ $395.00",
            "date": "24.12.2020",
            "time": "07:16 AM"
        },
        {
            "id": 8,
            "type": "Card",
            "where": "Amazon",
            "description": "Subscription renewal",
            "amount": "- $99.00",
            "date": "24.12.2020",
            "time": "07:16 AM"
        },
        {
            "id": 9,
            "type": "Card",
            "where": "Uber",
            "description": "From the airport",
            "amount": "- $20.00",
            "date": "24.12.2020",
            "time": "07:16 AM"
        },
        {
            "id": 10,
            "type": "Card",
            "where": "Go Viet",
            "description": "From VietNam",
            "amount": "- $90.99",
            "date": "24.12.2020",
            "time": "07:16 AM"
        }
    ],
    "pagination": {
        "page": 1,
        "limit": 10,
        "totalRows": 20,
        "totalPages": 2
    }
}